[10/22/2019 5:19:23 PM] Error frm_checkin::: getPersons ::System.ArgumentOutOfRangeException: Index was out of range. Must be non-negative and less than the size of the collection.
Parameter name: index
   at System.Collections.ArrayList.get_Item(Int32 index)
   at System.Windows.Forms.DataGridViewColumnCollection.get_Item(Int32 index)
   at MONKEY_APP.frm_checkin.<getPersons>d__9.MoveNext() in D:\Project C#\MONKEY_APP\MONKEY_APP\frm_checkin.cs:line 130
