[24/10/2019 01:10:16] Error frm_checkin::: setPersonCheckin ::System.InvalidOperationException: No row can be added to a DataGridView control that does not have columns. Columns must be added first.
   at System.Windows.Forms.DataGridViewRowCollection.AddInternal(Boolean newRow, Object[] values)
   at System.Windows.Forms.DataGridViewRowCollection.Add(Object[] values)
   at MONKEY_APP.frm_checkin.<setPersonCheckin>d__10.MoveNext() in D:\Project C#\MONKEY_APP\MONKEY_APP\frm_checkin.cs:line 234
