[12/9/2019 3:06:09 PM] Error frm_home::: dataGridView1_CellClick ::System.NullReferenceException: Object reference not set to an instance of an object.
   at MONKEY_APP.frm_home.<dataGridView1_CellClick>d__26.MoveNext() in D:\Project C#\MONKEY_APP\MONKEY_APP\frm_home.cs:line 698
[12/9/2019 3:06:14 PM] Error frm_home::: dataGridView1_CellClick ::System.NullReferenceException: Object reference not set to an instance of an object.
   at MONKEY_APP.frm_home.<dataGridView1_CellClick>d__26.MoveNext() in D:\Project C#\MONKEY_APP\MONKEY_APP\frm_home.cs:line 698
