[10/12/2019 11:13:53] Error frm_history_inv::: getInvoices ::System.ArgumentException: Type of value has a mismatch with column typeCouldn't store <เครดิต> in ยกเลิก Column.  Expected type is Byte[]. ---> System.ArgumentException: Type of value has a mismatch with column type
   at System.Data.Common.ObjectStorage.Set(Int32 recordNo, Object value)
   at System.Data.DataColumn.set_Item(Int32 record, Object value)
   --- End of inner exception stack trace ---
   at System.Data.DataColumn.set_Item(Int32 record, Object value)
   at System.Data.DataTable.NewRecordFromArray(Object[] value)
   at System.Data.DataRowCollection.Add(Object[] values)
   at MONKEY_APP.frm_history_inv.<getInvoices>d__11.MoveNext() in D:\Project C#\MONKEY_APP\MONKEY_APP\frm_history_inv.cs:line 197
