[12/12/2019 22:18:07] Error frm_manage_emp::: getEmployeeById ::System.NullReferenceException: Object reference not set to an instance of an object.
   at MONKEY_APP.frm_manage_emp.<getEmployeeById>d__11.MoveNext() in D:\Project C#\MONKEY_APP\MONKEY_APP\frm_manage_emp.cs:line 235
[12/12/2019 22:18:53] Error frm_manage_emp::: getEmployeeById ::System.NullReferenceException: Object reference not set to an instance of an object.
   at MONKEY_APP.frm_manage_emp.<getEmployeeById>d__11.MoveNext() in D:\Project C#\MONKEY_APP\MONKEY_APP\frm_manage_emp.cs:line 235
[12/12/2019 22:20:39] Error frm_manage_emp::: getEmployeeById ::System.NullReferenceException: Object reference not set to an instance of an object.
   at MONKEY_APP.frm_manage_emp.<getEmployeeById>d__11.MoveNext() in D:\Project C#\MONKEY_APP\MONKEY_APP\frm_manage_emp.cs:line 235
