[12/12/2019 02:02:13] Error frm_home::: dataGridView1_CellClick ::System.NullReferenceException: Object reference not set to an instance of an object.
   at MONKEY_APP.frm_home.<dataGridView1_CellClick>d__26.MoveNext() in D:\Project C#\MONKEY_APP\MONKEY_APP\frm_home.cs:line 736
[12/12/2019 02:03:46] Error frm_home::: dataGridView1_CellClick ::System.NullReferenceException: Object reference not set to an instance of an object.
   at MONKEY_APP.frm_home.<dataGridView1_CellClick>d__26.MoveNext() in D:\Project C#\MONKEY_APP\MONKEY_APP\frm_home.cs:line 736
