[11/18/2019 9:13:08 AM] Error Utils::: eformReserveClass ::System.FormatException: String was not recognized as a valid DateTime.
   at System.DateTimeParse.Parse(String s, DateTimeFormatInfo dtfi, DateTimeStyles styles)
   at System.Convert.ToDateTime(String value, IFormatProvider provider)
   at MONKEY_APP.Utils.getDateEntoTh(String myDate) in D:\Project C#\MONKEY_APP\MONKEY_APP\Utils.cs:line 87
   at MONKEY_APP.Utils.eformReserveClass(ReserveClass rs) in D:\Project C#\MONKEY_APP\MONKEY_APP\Utils.cs:line 741
